EESchema Schematic File Version 4
LIBS:bldc_driver-cache
EELAYER 30 0
EELAYER END
$Descr A4 11693 8268
encoding utf-8
Sheet 1 1
Title ""
Date ""
Rev ""
Comp ""
Comment1 ""
Comment2 ""
Comment3 ""
Comment4 ""
$EndDescr
$Comp
L power:+12V #PWR01
U 1 1 573A279E
P 3600 1900
F 0 "#PWR01" H 3600 1750 50  0001 C CNN
F 1 "+12V" H 3600 2040 50  0000 C CNN
F 2 "" H 3600 1900 50  0000 C CNN
F 3 "" H 3600 1900 50  0000 C CNN
	1    3600 1900
	1    0    0    -1  
$EndComp
Text GLabel 3600 2500 2    39   Input ~ 0
Ph_A
$Comp
L bldc_driver-rescue:IRFR024PBF Q1
U 1 1 573A36D7
P 3500 2800
F 0 "Q1" H 3700 2875 50  0000 L CNN
F 1 "IRFR024PBF" H 3700 2800 50  0000 L CNN
F 2 "TO_SOT_Packages_SMD:TO-252-2Lead" H 3700 2725 50  0001 L CIN
F 3 "" H 3500 2800 50  0000 L CNN
	1    3500 2800
	1    0    0    -1  
$EndComp
$Comp
L power:GND #PWR02
U 1 1 573A43D7
P 3600 3100
F 0 "#PWR02" H 3600 2850 50  0001 C CNN
F 1 "GND" H 3600 2950 50  0000 C CNN
F 2 "" H 3600 3100 50  0000 C CNN
F 3 "" H 3600 3100 50  0000 C CNN
	1    3600 3100
	1    0    0    -1  
$EndComp
$Comp
L bldc_driver-rescue:C C1
U 1 1 573A65A4
P 3900 2500
F 0 "C1" H 3925 2600 50  0000 L CNN
F 1 "100n" H 3925 2400 50  0000 L CNN
F 2 "Capacitors_SMD:C_1206_HandSoldering" H 3938 2350 50  0001 C CNN
F 3 "" H 3900 2500 50  0000 C CNN
	1    3900 2500
	1    0    0    -1  
$EndComp
$Comp
L bldc_driver-rescue:CP C4
U 1 1 573A7600
P 1050 1050
F 0 "C4" H 1075 1150 50  0000 L CNN
F 1 "470u" H 1075 950 50  0000 L CNN
F 2 "Capacitors_SMD:c_elec_6.3x5.7" H 1088 900 50  0001 C CNN
F 3 "" H 1050 1050 50  0000 C CNN
	1    1050 1050
	1    0    0    -1  
$EndComp
$Comp
L bldc_driver-rescue:CONN_01X03 P1
U 1 1 573A7ECB
P 1450 7150
F 0 "P1" H 1450 7350 50  0000 C CNN
F 1 "CONN_01X03" V 1550 7150 50  0000 C CNN
F 2 "Connect:AK300-3" H 1450 7150 50  0001 C CNN
F 3 "" H 1450 7150 50  0000 C CNN
	1    1450 7150
	1    0    0    -1  
$EndComp
Text GLabel 1250 7250 0    39   Input ~ 0
Ph_C
Text GLabel 1250 7150 0    39   Input ~ 0
Ph_B
Text GLabel 1250 7050 0    39   Input ~ 0
Ph_A
$Comp
L bldc_driver-rescue:IRFR024PBF Q2
U 1 1 573AAB90
P 3500 2200
F 0 "Q2" H 3700 2275 50  0000 L CNN
F 1 "IRFR024PBF" H 3700 2200 50  0000 L CNN
F 2 "TO_SOT_Packages_SMD:TO-252-2Lead" H 3700 2125 50  0001 L CIN
F 3 "" H 3500 2200 50  0000 L CNN
	1    3500 2200
	1    0    0    -1  
$EndComp
$Comp
L bldc_driver-rescue:IR2101 U1
U 1 1 573AAF17
P 1950 2450
F 0 "U1" H 1700 2200 60  0000 C CNN
F 1 "IR2101" H 1800 2700 60  0000 C CNN
F 2 "SMD_Packages:SOIC-8-N" H 1950 2450 60  0001 C CNN
F 3 "" H 1950 2450 60  0000 C CNN
	1    1950 2450
	1    0    0    -1  
$EndComp
$Comp
L power:+12V #PWR03
U 1 1 573AB3D4
P 1050 850
F 0 "#PWR03" H 1050 700 50  0001 C CNN
F 1 "+12V" H 1050 990 50  0000 C CNN
F 2 "" H 1050 850 50  0000 C CNN
F 3 "" H 1050 850 50  0000 C CNN
	1    1050 850 
	1    0    0    -1  
$EndComp
$Comp
L power:GND #PWR04
U 1 1 573AB3F1
P 1050 1250
F 0 "#PWR04" H 1050 1000 50  0001 C CNN
F 1 "GND" H 1050 1100 50  0000 C CNN
F 2 "" H 1050 1250 50  0000 C CNN
F 3 "" H 1050 1250 50  0000 C CNN
	1    1050 1250
	1    0    0    -1  
$EndComp
$Comp
L bldc_driver-rescue:R R8
U 1 1 573AB51B
P 3100 2250
F 0 "R8" V 3180 2250 50  0000 C CNN
F 1 "22" V 3100 2250 50  0000 C CNN
F 2 "Resistors_SMD:R_1206_HandSoldering" V 3030 2250 50  0001 C CNN
F 3 "" H 3100 2250 50  0000 C CNN
	1    3100 2250
	0    1    1    0   
$EndComp
$Comp
L bldc_driver-rescue:R R9
U 1 1 573AB570
P 3100 2850
F 0 "R9" V 3180 2850 50  0000 C CNN
F 1 "22" V 3100 2850 50  0000 C CNN
F 2 "Resistors_SMD:R_1206_HandSoldering" V 3030 2850 50  0001 C CNN
F 3 "" H 3100 2850 50  0000 C CNN
	1    3100 2850
	0    1    1    0   
$EndComp
$Comp
L bldc_driver-rescue:SMBJ18 D5
U 1 1 573ABAC5
P 2300 1050
F 0 "D5" H 2050 1000 50  0000 C CNN
F 1 "SMBJ18" H 2100 1100 50  0000 C CNN
F 2 "Diodes_SMD:SMB_Handsoldering" V 2300 1050 50  0001 C CNN
F 3 "" V 2300 1050 50  0000 C CNN
	1    2300 1050
	1    0    0    -1  
$EndComp
$Comp
L bldc_driver-rescue:R R7
U 1 1 573ABBDC
P 2100 850
F 0 "R7" V 2180 850 50  0000 C CNN
F 1 "10" V 2100 850 50  0000 C CNN
F 2 "Resistors_ThroughHole:Resistor_Horizontal_RM7mm" V 2030 850 50  0001 C CNN
F 3 "" H 2100 850 50  0000 C CNN
	1    2100 850 
	0    1    1    0   
$EndComp
$Comp
L power:+12V #PWR05
U 1 1 573ABCAC
P 1550 800
F 0 "#PWR05" H 1550 650 50  0001 C CNN
F 1 "+12V" H 1550 940 50  0000 C CNN
F 2 "" H 1550 800 50  0000 C CNN
F 3 "" H 1550 800 50  0000 C CNN
	1    1550 800 
	1    0    0    -1  
$EndComp
$Comp
L power:GND #PWR06
U 1 1 573ABCF8
P 2300 1250
F 0 "#PWR06" H 2300 1000 50  0001 C CNN
F 1 "GND" H 2300 1100 50  0000 C CNN
F 2 "" H 2300 1250 50  0000 C CNN
F 3 "" H 2300 1250 50  0000 C CNN
	1    2300 1250
	1    0    0    -1  
$EndComp
$Comp
L power:+12C #PWR07
U 1 1 573ABDD3
P 2300 800
F 0 "#PWR07" H 2300 650 50  0001 C CNN
F 1 "+12C" H 2300 950 50  0000 C CNN
F 2 "" H 2300 800 50  0000 C CNN
F 3 "" H 2300 800 50  0000 C CNN
	1    2300 800 
	1    0    0    -1  
$EndComp
Text GLabel 1150 2400 0    39   Input ~ 0
H_A
Text GLabel 1150 2500 0    39   Input ~ 0
L_A
$Comp
L bldc_driver-rescue:R R4
U 1 1 573ABEF5
P 1350 2850
F 0 "R4" V 1430 2850 50  0000 C CNN
F 1 "10k" V 1350 2850 50  0000 C CNN
F 2 "Resistors_SMD:R_1206_HandSoldering" V 1280 2850 50  0001 C CNN
F 3 "" H 1350 2850 50  0000 C CNN
	1    1350 2850
	-1   0    0    1   
$EndComp
$Comp
L bldc_driver-rescue:R R1
U 1 1 573ABF6F
P 1200 2850
F 0 "R1" V 1280 2850 50  0000 C CNN
F 1 "10k" V 1200 2850 50  0000 C CNN
F 2 "Resistors_SMD:R_1206_HandSoldering" V 1130 2850 50  0001 C CNN
F 3 "" H 1200 2850 50  0000 C CNN
	1    1200 2850
	-1   0    0    1   
$EndComp
$Comp
L power:GND #PWR08
U 1 1 573AC041
P 1450 3100
F 0 "#PWR08" H 1450 2850 50  0001 C CNN
F 1 "GND" H 1450 2950 50  0000 C CNN
F 2 "" H 1450 3100 50  0000 C CNN
F 3 "" H 1450 3100 50  0000 C CNN
	1    1450 3100
	1    0    0    -1  
$EndComp
$Comp
L bldc_driver-rescue:C C2
U 1 1 573AC495
P 1250 2100
F 0 "C2" H 1275 2200 50  0000 L CNN
F 1 "100n" H 1275 2000 50  0000 L CNN
F 2 "Capacitors_SMD:C_1206_HandSoldering" H 1288 1950 50  0001 C CNN
F 3 "" H 1250 2100 50  0000 C CNN
	1    1250 2100
	0    1    1    0   
$EndComp
$Comp
L power:GND #PWR09
U 1 1 573AC524
P 1050 2150
F 0 "#PWR09" H 1050 1900 50  0001 C CNN
F 1 "GND" H 1050 2000 50  0000 C CNN
F 2 "" H 1050 2150 50  0000 C CNN
F 3 "" H 1050 2150 50  0000 C CNN
	1    1050 2150
	1    0    0    -1  
$EndComp
$Comp
L power:+12C #PWR010
U 1 1 573AC65F
P 1450 1950
F 0 "#PWR010" H 1450 1800 50  0001 C CNN
F 1 "+12C" H 1450 2100 50  0000 C CNN
F 2 "" H 1450 1950 50  0000 C CNN
F 3 "" H 1450 1950 50  0000 C CNN
	1    1450 1950
	1    0    0    -1  
$EndComp
$Comp
L bldc_driver-rescue:C C6
U 1 1 573AC851
P 2500 2200
F 0 "C6" H 2525 2300 50  0000 L CNN
F 1 "100n" H 2525 2100 50  0000 L CNN
F 2 "Capacitors_SMD:C_1206_HandSoldering" H 2538 2050 50  0001 C CNN
F 3 "" H 2500 2200 50  0000 C CNN
	1    2500 2200
	1    0    0    1   
$EndComp
$Comp
L power:+12V #PWR011
U 1 1 573AD3FA
P 3600 3500
F 0 "#PWR011" H 3600 3350 50  0001 C CNN
F 1 "+12V" H 3600 3640 50  0000 C CNN
F 2 "" H 3600 3500 50  0000 C CNN
F 3 "" H 3600 3500 50  0000 C CNN
	1    3600 3500
	1    0    0    -1  
$EndComp
Text GLabel 3600 4100 2    39   Input ~ 0
Ph_B
$Comp
L bldc_driver-rescue:IRFR024PBF Q4
U 1 1 573AD403
P 3500 4400
F 0 "Q4" H 3700 4475 50  0000 L CNN
F 1 "IRFR024PBF" H 3700 4400 50  0000 L CNN
F 2 "TO_SOT_Packages_SMD:TO-252-2Lead" H 3700 4325 50  0001 L CIN
F 3 "" H 3500 4400 50  0000 L CNN
	1    3500 4400
	1    0    0    -1  
$EndComp
$Comp
L power:GND #PWR012
U 1 1 573AD409
P 3600 4700
F 0 "#PWR012" H 3600 4450 50  0001 C CNN
F 1 "GND" H 3600 4550 50  0000 C CNN
F 2 "" H 3600 4700 50  0000 C CNN
F 3 "" H 3600 4700 50  0000 C CNN
	1    3600 4700
	1    0    0    -1  
$EndComp
$Comp
L bldc_driver-rescue:C C9
U 1 1 573AD410
P 3900 4100
F 0 "C9" H 3925 4200 50  0000 L CNN
F 1 "100n" H 3925 4000 50  0000 L CNN
F 2 "Capacitors_SMD:C_1206_HandSoldering" H 3938 3950 50  0001 C CNN
F 3 "" H 3900 4100 50  0000 C CNN
	1    3900 4100
	1    0    0    -1  
$EndComp
$Comp
L bldc_driver-rescue:IRFR024PBF Q3
U 1 1 573AD41C
P 3500 3800
F 0 "Q3" H 3700 3875 50  0000 L CNN
F 1 "IRFR024PBF" H 3700 3800 50  0000 L CNN
F 2 "TO_SOT_Packages_SMD:TO-252-2Lead" H 3700 3725 50  0001 L CIN
F 3 "" H 3500 3800 50  0000 L CNN
	1    3500 3800
	1    0    0    -1  
$EndComp
$Comp
L bldc_driver-rescue:IR2101 U2
U 1 1 573AD422
P 1950 4050
F 0 "U2" H 1700 3800 60  0000 C CNN
F 1 "IR2101" H 1800 4300 60  0000 C CNN
F 2 "SMD_Packages:SOIC-8-N" H 1950 4050 60  0001 C CNN
F 3 "" H 1950 4050 60  0000 C CNN
	1    1950 4050
	1    0    0    -1  
$EndComp
$Comp
L bldc_driver-rescue:R R10
U 1 1 573AD428
P 3100 3850
F 0 "R10" V 3180 3850 50  0000 C CNN
F 1 "22" V 3100 3850 50  0000 C CNN
F 2 "Resistors_SMD:R_1206_HandSoldering" V 3030 3850 50  0001 C CNN
F 3 "" H 3100 3850 50  0000 C CNN
	1    3100 3850
	0    1    1    0   
$EndComp
$Comp
L bldc_driver-rescue:R R11
U 1 1 573AD42E
P 3100 4450
F 0 "R11" V 3180 4450 50  0000 C CNN
F 1 "22" V 3100 4450 50  0000 C CNN
F 2 "Resistors_SMD:R_1206_HandSoldering" V 3030 4450 50  0001 C CNN
F 3 "" H 3100 4450 50  0000 C CNN
	1    3100 4450
	0    1    1    0   
$EndComp
Text GLabel 1150 4000 0    39   Input ~ 0
H_B
Text GLabel 1150 4100 0    39   Input ~ 0
L_B
$Comp
L bldc_driver-rescue:R R5
U 1 1 573AD440
P 1350 4450
F 0 "R5" V 1430 4450 50  0000 C CNN
F 1 "10k" V 1350 4450 50  0000 C CNN
F 2 "Resistors_SMD:R_1206_HandSoldering" V 1280 4450 50  0001 C CNN
F 3 "" H 1350 4450 50  0000 C CNN
	1    1350 4450
	-1   0    0    1   
$EndComp
$Comp
L bldc_driver-rescue:R R2
U 1 1 573AD446
P 1200 4450
F 0 "R2" V 1280 4450 50  0000 C CNN
F 1 "10k" V 1200 4450 50  0000 C CNN
F 2 "Resistors_SMD:R_1206_HandSoldering" V 1130 4450 50  0001 C CNN
F 3 "" H 1200 4450 50  0000 C CNN
	1    1200 4450
	-1   0    0    1   
$EndComp
$Comp
L power:GND #PWR013
U 1 1 573AD44E
P 1450 4700
F 0 "#PWR013" H 1450 4450 50  0001 C CNN
F 1 "GND" H 1450 4550 50  0000 C CNN
F 2 "" H 1450 4700 50  0000 C CNN
F 3 "" H 1450 4700 50  0000 C CNN
	1    1450 4700
	1    0    0    -1  
$EndComp
$Comp
L bldc_driver-rescue:C C3
U 1 1 573AD45F
P 1250 3700
F 0 "C3" H 1275 3800 50  0000 L CNN
F 1 "100n" H 1275 3600 50  0000 L CNN
F 2 "Capacitors_SMD:C_1206_HandSoldering" H 1288 3550 50  0001 C CNN
F 3 "" H 1250 3700 50  0000 C CNN
	1    1250 3700
	0    1    1    0   
$EndComp
$Comp
L power:GND #PWR014
U 1 1 573AD465
P 1050 3750
F 0 "#PWR014" H 1050 3500 50  0001 C CNN
F 1 "GND" H 1050 3600 50  0000 C CNN
F 2 "" H 1050 3750 50  0000 C CNN
F 3 "" H 1050 3750 50  0000 C CNN
	1    1050 3750
	1    0    0    -1  
$EndComp
$Comp
L power:+12C #PWR015
U 1 1 573AD471
P 1450 3550
F 0 "#PWR015" H 1450 3400 50  0001 C CNN
F 1 "+12C" H 1450 3700 50  0000 C CNN
F 2 "" H 1450 3550 50  0000 C CNN
F 3 "" H 1450 3550 50  0000 C CNN
	1    1450 3550
	1    0    0    -1  
$EndComp
$Comp
L bldc_driver-rescue:C C7
U 1 1 573AD482
P 2500 3800
F 0 "C7" H 2525 3900 50  0000 L CNN
F 1 "100n" H 2525 3700 50  0000 L CNN
F 2 "Capacitors_SMD:C_1206_HandSoldering" H 2538 3650 50  0001 C CNN
F 3 "" H 2500 3800 50  0000 C CNN
	1    2500 3800
	1    0    0    1   
$EndComp
$Comp
L power:+12V #PWR016
U 1 1 573AD660
P 3600 5100
F 0 "#PWR016" H 3600 4950 50  0001 C CNN
F 1 "+12V" H 3600 5240 50  0000 C CNN
F 2 "" H 3600 5100 50  0000 C CNN
F 3 "" H 3600 5100 50  0000 C CNN
	1    3600 5100
	1    0    0    -1  
$EndComp
Text GLabel 3600 5700 2    39   Input ~ 0
Ph_C
$Comp
L bldc_driver-rescue:IRFR024PBF Q6
U 1 1 573AD669
P 3500 6000
F 0 "Q6" H 3700 6075 50  0000 L CNN
F 1 "IRFR024PBF" H 3700 6000 50  0000 L CNN
F 2 "TO_SOT_Packages_SMD:TO-252-2Lead" H 3700 5925 50  0001 L CIN
F 3 "" H 3500 6000 50  0000 L CNN
	1    3500 6000
	1    0    0    -1  
$EndComp
$Comp
L power:GND #PWR017
U 1 1 573AD66F
P 3600 6300
F 0 "#PWR017" H 3600 6050 50  0001 C CNN
F 1 "GND" H 3600 6150 50  0000 C CNN
F 2 "" H 3600 6300 50  0000 C CNN
F 3 "" H 3600 6300 50  0000 C CNN
	1    3600 6300
	1    0    0    -1  
$EndComp
$Comp
L bldc_driver-rescue:C C10
U 1 1 573AD676
P 3900 5700
F 0 "C10" H 3925 5800 50  0000 L CNN
F 1 "100n" H 3925 5600 50  0000 L CNN
F 2 "Capacitors_SMD:C_1206_HandSoldering" H 3938 5550 50  0001 C CNN
F 3 "" H 3900 5700 50  0000 C CNN
	1    3900 5700
	1    0    0    -1  
$EndComp
$Comp
L bldc_driver-rescue:IRFR024PBF Q5
U 1 1 573AD682
P 3500 5400
F 0 "Q5" H 3700 5475 50  0000 L CNN
F 1 "IRFR024PBF" H 3700 5400 50  0000 L CNN
F 2 "TO_SOT_Packages_SMD:TO-252-2Lead" H 3700 5325 50  0001 L CIN
F 3 "" H 3500 5400 50  0000 L CNN
	1    3500 5400
	1    0    0    -1  
$EndComp
$Comp
L bldc_driver-rescue:IR2101 U3
U 1 1 573AD688
P 1950 5650
F 0 "U3" H 1700 5400 60  0000 C CNN
F 1 "IR2101" H 1800 5900 60  0000 C CNN
F 2 "SMD_Packages:SOIC-8-N" H 1950 5650 60  0001 C CNN
F 3 "" H 1950 5650 60  0000 C CNN
	1    1950 5650
	1    0    0    -1  
$EndComp
$Comp
L bldc_driver-rescue:R R12
U 1 1 573AD68E
P 3100 5450
F 0 "R12" V 3180 5450 50  0000 C CNN
F 1 "22" V 3100 5450 50  0000 C CNN
F 2 "Resistors_SMD:R_1206_HandSoldering" V 3030 5450 50  0001 C CNN
F 3 "" H 3100 5450 50  0000 C CNN
	1    3100 5450
	0    1    1    0   
$EndComp
$Comp
L bldc_driver-rescue:R R13
U 1 1 573AD694
P 3100 6050
F 0 "R13" V 3180 6050 50  0000 C CNN
F 1 "22" V 3100 6050 50  0000 C CNN
F 2 "Resistors_SMD:R_1206_HandSoldering" V 3030 6050 50  0001 C CNN
F 3 "" H 3100 6050 50  0000 C CNN
	1    3100 6050
	0    1    1    0   
$EndComp
Text GLabel 1150 5600 0    39   Input ~ 0
H_C
Text GLabel 1150 5700 0    39   Input ~ 0
L_C
$Comp
L bldc_driver-rescue:R R6
U 1 1 573AD6A6
P 1350 6050
F 0 "R6" V 1430 6050 50  0000 C CNN
F 1 "10k" V 1350 6050 50  0000 C CNN
F 2 "Resistors_SMD:R_1206_HandSoldering" V 1280 6050 50  0001 C CNN
F 3 "" H 1350 6050 50  0000 C CNN
	1    1350 6050
	-1   0    0    1   
$EndComp
$Comp
L bldc_driver-rescue:R R3
U 1 1 573AD6AC
P 1200 6050
F 0 "R3" V 1280 6050 50  0000 C CNN
F 1 "10k" V 1200 6050 50  0000 C CNN
F 2 "Resistors_SMD:R_1206_HandSoldering" V 1130 6050 50  0001 C CNN
F 3 "" H 1200 6050 50  0000 C CNN
	1    1200 6050
	-1   0    0    1   
$EndComp
$Comp
L power:GND #PWR018
U 1 1 573AD6B4
P 1450 6300
F 0 "#PWR018" H 1450 6050 50  0001 C CNN
F 1 "GND" H 1450 6150 50  0000 C CNN
F 2 "" H 1450 6300 50  0000 C CNN
F 3 "" H 1450 6300 50  0000 C CNN
	1    1450 6300
	1    0    0    -1  
$EndComp
$Comp
L bldc_driver-rescue:C C5
U 1 1 573AD6C5
P 1250 5300
F 0 "C5" H 1275 5400 50  0000 L CNN
F 1 "100n" H 1275 5200 50  0000 L CNN
F 2 "Capacitors_SMD:C_1206_HandSoldering" H 1288 5150 50  0001 C CNN
F 3 "" H 1250 5300 50  0000 C CNN
	1    1250 5300
	0    1    1    0   
$EndComp
$Comp
L power:GND #PWR019
U 1 1 573AD6CB
P 1050 5350
F 0 "#PWR019" H 1050 5100 50  0001 C CNN
F 1 "GND" H 1050 5200 50  0000 C CNN
F 2 "" H 1050 5350 50  0000 C CNN
F 3 "" H 1050 5350 50  0000 C CNN
	1    1050 5350
	1    0    0    -1  
$EndComp
$Comp
L power:+12C #PWR020
U 1 1 573AD6D7
P 1450 5150
F 0 "#PWR020" H 1450 5000 50  0001 C CNN
F 1 "+12C" H 1450 5300 50  0000 C CNN
F 2 "" H 1450 5150 50  0000 C CNN
F 3 "" H 1450 5150 50  0000 C CNN
	1    1450 5150
	1    0    0    -1  
$EndComp
$Comp
L bldc_driver-rescue:C C8
U 1 1 573AD6E8
P 2500 5400
F 0 "C8" H 2525 5500 50  0000 L CNN
F 1 "100n" H 2525 5300 50  0000 L CNN
F 2 "Capacitors_SMD:C_1206_HandSoldering" H 2538 5250 50  0001 C CNN
F 3 "" H 2500 5400 50  0000 C CNN
	1    2500 5400
	1    0    0    1   
$EndComp
$Comp
L bldc_driver-rescue:D D1
U 1 1 573AF6BF
P 1750 850
F 0 "D1" H 1750 950 50  0000 C CNN
F 1 "D" H 1750 750 50  0000 C CNN
F 2 "Diodes_SMD:SMB_Handsoldering" H 1750 850 50  0001 C CNN
F 3 "" H 1750 850 50  0000 C CNN
	1    1750 850 
	-1   0    0    1   
$EndComp
$Comp
L bldc_driver-rescue:CONN_01X02 P2
U 1 1 573AFE5E
P 900 7150
F 0 "P2" H 900 7300 50  0000 C CNN
F 1 "CONN_01X02" V 1000 7150 50  0000 C CNN
F 2 "Connect:AK300-2" H 900 7150 50  0001 C CNN
F 3 "" H 900 7150 50  0000 C CNN
	1    900  7150
	1    0    0    1   
$EndComp
$Comp
L power:GND #PWR021
U 1 1 573AFF0A
P 650 7250
F 0 "#PWR021" H 650 7000 50  0001 C CNN
F 1 "GND" H 650 7100 50  0000 C CNN
F 2 "" H 650 7250 50  0000 C CNN
F 3 "" H 650 7250 50  0000 C CNN
	1    650  7250
	1    0    0    -1  
$EndComp
$Comp
L power:+12V #PWR022
U 1 1 573AFFFF
P 650 7050
F 0 "#PWR022" H 650 6900 50  0001 C CNN
F 1 "+12V" H 650 7190 50  0000 C CNN
F 2 "" H 650 7050 50  0000 C CNN
F 3 "" H 650 7050 50  0000 C CNN
	1    650  7050
	1    0    0    -1  
$EndComp
$Comp
L power:GND #PWR023
U 1 1 573B073E
P 1750 7450
F 0 "#PWR023" H 1750 7200 50  0001 C CNN
F 1 "GND" H 1750 7300 50  0000 C CNN
F 2 "" H 1750 7450 50  0000 C CNN
F 3 "" H 1750 7450 50  0000 C CNN
	1    1750 7450
	1    0    0    -1  
$EndComp
Wire Wire Line
	3600 1900 3600 1950
Wire Wire Line
	3600 2400 3600 2500
Wire Wire Line
	3600 3000 3600 3050
Wire Wire Line
	3900 2650 3900 3050
Wire Wire Line
	3900 3050 3600 3050
Connection ~ 3600 3050
Wire Wire Line
	3900 2350 3900 1950
Wire Wire Line
	3900 1950 3600 1950
Connection ~ 3600 1950
Wire Wire Line
	1050 1250 1050 1200
Wire Wire Line
	1050 900  1050 850 
Wire Wire Line
	3300 2250 3250 2250
Wire Wire Line
	3250 2850 3300 2850
Wire Wire Line
	3600 2500 2500 2500
Connection ~ 3600 2500
Wire Wire Line
	2350 2600 2400 2600
Wire Wire Line
	2400 2600 2400 2850
Wire Wire Line
	2400 2850 2950 2850
Wire Wire Line
	2350 2400 2900 2400
Wire Wire Line
	2900 2400 2900 2250
Wire Wire Line
	2900 2250 2950 2250
Wire Wire Line
	2300 800  2300 850 
Wire Wire Line
	2300 850  2250 850 
Wire Wire Line
	1600 850  1550 850 
Wire Wire Line
	1550 850  1550 800 
Wire Wire Line
	2300 1250 2300 1200
Connection ~ 2300 850 
Wire Wire Line
	1500 2600 1450 2600
Wire Wire Line
	1450 2600 1450 3050
Wire Wire Line
	1200 3000 1200 3050
Wire Wire Line
	1200 3050 1350 3050
Connection ~ 1450 3050
Wire Wire Line
	1350 3000 1350 3050
Connection ~ 1350 3050
Wire Wire Line
	1150 2500 1350 2500
Wire Wire Line
	1150 2400 1200 2400
Wire Wire Line
	1200 2700 1200 2400
Connection ~ 1200 2400
Wire Wire Line
	1350 2700 1350 2500
Connection ~ 1350 2500
Wire Wire Line
	1050 2150 1050 2100
Wire Wire Line
	1050 2100 1100 2100
Wire Wire Line
	1500 2300 1450 2300
Wire Wire Line
	1450 2300 1450 2100
Wire Wire Line
	1400 2100 1450 2100
Connection ~ 1450 2100
Wire Wire Line
	1650 2000 1450 2000
Connection ~ 1450 2000
Wire Wire Line
	1950 2000 2400 2000
Wire Wire Line
	2400 2000 2400 2300
Wire Wire Line
	2400 2300 2350 2300
Wire Wire Line
	2500 2000 2500 2050
Connection ~ 2400 2000
Wire Wire Line
	2500 2350 2500 2500
Connection ~ 2500 2500
Wire Wire Line
	3600 3500 3600 3550
Wire Wire Line
	3600 4000 3600 4100
Wire Wire Line
	3600 4600 3600 4650
Wire Wire Line
	3900 4250 3900 4650
Wire Wire Line
	3900 4650 3600 4650
Connection ~ 3600 4650
Wire Wire Line
	3900 3950 3900 3550
Wire Wire Line
	3900 3550 3600 3550
Connection ~ 3600 3550
Wire Wire Line
	3300 3850 3250 3850
Wire Wire Line
	3250 4450 3300 4450
Wire Wire Line
	3600 4100 2500 4100
Connection ~ 3600 4100
Wire Wire Line
	2350 4200 2400 4200
Wire Wire Line
	2400 4200 2400 4450
Wire Wire Line
	2400 4450 2950 4450
Wire Wire Line
	2350 4000 2900 4000
Wire Wire Line
	2900 4000 2900 3850
Wire Wire Line
	2900 3850 2950 3850
Wire Wire Line
	1500 4200 1450 4200
Wire Wire Line
	1450 4200 1450 4650
Wire Wire Line
	1200 4600 1200 4650
Wire Wire Line
	1200 4650 1350 4650
Connection ~ 1450 4650
Wire Wire Line
	1350 4600 1350 4650
Connection ~ 1350 4650
Wire Wire Line
	1150 4100 1350 4100
Wire Wire Line
	1150 4000 1200 4000
Wire Wire Line
	1200 4300 1200 4000
Connection ~ 1200 4000
Wire Wire Line
	1350 4300 1350 4100
Connection ~ 1350 4100
Wire Wire Line
	1050 3750 1050 3700
Wire Wire Line
	1050 3700 1100 3700
Wire Wire Line
	1500 3900 1450 3900
Wire Wire Line
	1450 3900 1450 3700
Wire Wire Line
	1400 3700 1450 3700
Connection ~ 1450 3700
Wire Wire Line
	1650 3600 1450 3600
Connection ~ 1450 3600
Wire Wire Line
	1950 3600 2400 3600
Wire Wire Line
	2400 3600 2400 3900
Wire Wire Line
	2400 3900 2350 3900
Wire Wire Line
	2500 3600 2500 3650
Connection ~ 2400 3600
Wire Wire Line
	2500 3950 2500 4100
Connection ~ 2500 4100
Wire Wire Line
	3600 5100 3600 5150
Wire Wire Line
	3600 5600 3600 5700
Wire Wire Line
	3600 6200 3600 6250
Wire Wire Line
	3900 5850 3900 6250
Wire Wire Line
	3900 6250 3600 6250
Connection ~ 3600 6250
Wire Wire Line
	3900 5550 3900 5150
Wire Wire Line
	3900 5150 3600 5150
Connection ~ 3600 5150
Wire Wire Line
	3300 5450 3250 5450
Wire Wire Line
	3250 6050 3300 6050
Wire Wire Line
	3600 5700 2500 5700
Connection ~ 3600 5700
Wire Wire Line
	2350 5800 2400 5800
Wire Wire Line
	2400 5800 2400 6050
Wire Wire Line
	2400 6050 2950 6050
Wire Wire Line
	2350 5600 2900 5600
Wire Wire Line
	2900 5600 2900 5450
Wire Wire Line
	2900 5450 2950 5450
Wire Wire Line
	1500 5800 1450 5800
Wire Wire Line
	1450 5800 1450 6250
Wire Wire Line
	1200 6200 1200 6250
Wire Wire Line
	1200 6250 1350 6250
Connection ~ 1450 6250
Wire Wire Line
	1350 6200 1350 6250
Connection ~ 1350 6250
Wire Wire Line
	1150 5700 1350 5700
Wire Wire Line
	1150 5600 1200 5600
Wire Wire Line
	1200 5900 1200 5600
Connection ~ 1200 5600
Wire Wire Line
	1350 5900 1350 5700
Connection ~ 1350 5700
Wire Wire Line
	1050 5350 1050 5300
Wire Wire Line
	1050 5300 1100 5300
Wire Wire Line
	1500 5500 1450 5500
Wire Wire Line
	1450 5500 1450 5300
Wire Wire Line
	1400 5300 1450 5300
Connection ~ 1450 5300
Wire Wire Line
	1650 5200 1450 5200
Connection ~ 1450 5200
Wire Wire Line
	1950 5200 2400 5200
Wire Wire Line
	2400 5200 2400 5500
Wire Wire Line
	2400 5500 2350 5500
Wire Wire Line
	2500 5200 2500 5250
Connection ~ 2400 5200
Wire Wire Line
	2500 5550 2500 5700
Connection ~ 2500 5700
Wire Wire Line
	1950 850  1900 850 
Wire Wire Line
	700  7100 650  7100
Wire Wire Line
	650  7100 650  7050
Wire Wire Line
	700  7200 650  7200
Wire Wire Line
	650  7200 650  7250
$Comp
L bldc_driver-rescue:CONN_01X07 P3
U 1 1 573B099F
P 2000 7100
F 0 "P3" H 2000 7500 50  0000 C CNN
F 1 "CONN_01X07" V 2100 7100 50  0000 C CNN
F 2 "Pin_Headers:Pin_Header_Straight_1x07" H 2000 7100 50  0001 C CNN
F 3 "" H 2000 7100 50  0000 C CNN
	1    2000 7100
	1    0    0    -1  
$EndComp
Wire Wire Line
	1800 7400 1750 7400
Wire Wire Line
	1750 7400 1750 7450
Text GLabel 1800 6800 0    39   Input ~ 0
H_A
Text GLabel 1800 6900 0    39   Input ~ 0
L_A
Text GLabel 1800 7300 0    39   Input ~ 0
L_C
Text GLabel 1800 7200 0    39   Input ~ 0
H_C
Text GLabel 1800 7000 0    39   Input ~ 0
H_B
Text GLabel 1800 7100 0    39   Input ~ 0
L_B
Text GLabel 2650 6900 0    39   Input ~ 0
SUM_BEMF
Text GLabel 2650 7000 0    39   Input ~ 0
A_BMF
Text GLabel 2650 7100 0    39   Input ~ 0
B_BMF
Text GLabel 2650 7200 0    39   Input ~ 0
C_BEMF
$Comp
L bldc_driver-rescue:CONN_01X04 P4
U 1 1 573B24B4
P 2850 7050
F 0 "P4" H 2850 7300 50  0000 C CNN
F 1 "CONN_01X04" V 2950 7050 50  0000 C CNN
F 2 "Pin_Headers:Pin_Header_Straight_1x04" H 2850 7050 50  0001 C CNN
F 3 "" H 2850 7050 50  0000 C CNN
	1    2850 7050
	1    0    0    -1  
$EndComp
$Comp
L bldc_driver-rescue:R R14
U 1 1 573B329B
P 5850 1600
F 0 "R14" V 5930 1600 50  0000 C CNN
F 1 "10k" V 5850 1600 50  0000 C CNN
F 2 "Resistors_SMD:R_1206_HandSoldering" V 5780 1600 50  0001 C CNN
F 3 "" H 5850 1600 50  0000 C CNN
	1    5850 1600
	0    1    1    0   
$EndComp
$Comp
L bldc_driver-rescue:R R15
U 1 1 573B3416
P 5850 1750
F 0 "R15" V 5930 1750 50  0000 C CNN
F 1 "10k" V 5850 1750 50  0000 C CNN
F 2 "Resistors_SMD:R_1206_HandSoldering" V 5780 1750 50  0001 C CNN
F 3 "" H 5850 1750 50  0000 C CNN
	1    5850 1750
	0    1    1    0   
$EndComp
$Comp
L bldc_driver-rescue:R R16
U 1 1 573B3481
P 5850 1900
F 0 "R16" V 5930 1900 50  0000 C CNN
F 1 "10k" V 5850 1900 50  0000 C CNN
F 2 "Resistors_SMD:R_1206_HandSoldering" V 5780 1900 50  0001 C CNN
F 3 "" H 5850 1900 50  0000 C CNN
	1    5850 1900
	0    1    1    0   
$EndComp
$Comp
L bldc_driver-rescue:R R20
U 1 1 573B34F4
P 7500 1600
F 0 "R20" V 7580 1600 50  0000 C CNN
F 1 "1k" V 7500 1600 50  0000 C CNN
F 2 "Resistors_SMD:R_1206_HandSoldering" V 7430 1600 50  0001 C CNN
F 3 "" H 7500 1600 50  0000 C CNN
	1    7500 1600
	0    1    1    0   
$EndComp
$Comp
L bldc_driver-rescue:R R21
U 1 1 573B355F
P 7500 1750
F 0 "R21" V 7580 1750 50  0000 C CNN
F 1 "1k" V 7500 1750 50  0000 C CNN
F 2 "Resistors_SMD:R_1206_HandSoldering" V 7430 1750 50  0001 C CNN
F 3 "" H 7500 1750 50  0000 C CNN
	1    7500 1750
	0    1    1    0   
$EndComp
$Comp
L bldc_driver-rescue:R R22
U 1 1 573B35CC
P 7500 1900
F 0 "R22" V 7580 1900 50  0000 C CNN
F 1 "1k" V 7500 1900 50  0000 C CNN
F 2 "Resistors_SMD:R_1206_HandSoldering" V 7430 1900 50  0001 C CNN
F 3 "" H 7500 1900 50  0000 C CNN
	1    7500 1900
	0    1    1    0   
$EndComp
$Comp
L bldc_driver-rescue:C C11
U 1 1 573B366C
P 6050 2100
F 0 "C11" H 6075 2200 50  0000 L CNN
F 1 "100n" H 6075 2000 50  0000 L CNN
F 2 "Capacitors_SMD:C_1206_HandSoldering" H 6088 1950 50  0001 C CNN
F 3 "" H 6050 2100 50  0000 C CNN
	1    6050 2100
	1    0    0    -1  
$EndComp
$Comp
L bldc_driver-rescue:C C12
U 1 1 573B3750
P 6300 2100
F 0 "C12" H 6325 2200 50  0000 L CNN
F 1 "100n" H 6325 2000 50  0000 L CNN
F 2 "Capacitors_SMD:C_1206_HandSoldering" H 6338 1950 50  0001 C CNN
F 3 "" H 6300 2100 50  0000 C CNN
	1    6300 2100
	1    0    0    -1  
$EndComp
$Comp
L bldc_driver-rescue:C C13
U 1 1 573B37F9
P 6550 2100
F 0 "C13" H 6575 2200 50  0000 L CNN
F 1 "100n" H 6575 2000 50  0000 L CNN
F 2 "Capacitors_SMD:C_1206_HandSoldering" H 6588 1950 50  0001 C CNN
F 3 "" H 6550 2100 50  0000 C CNN
	1    6550 2100
	1    0    0    -1  
$EndComp
Wire Wire Line
	6000 1900 6550 1900
Wire Wire Line
	6000 1750 6300 1750
Wire Wire Line
	6000 1600 6050 1600
Wire Wire Line
	6050 1950 6050 1600
Connection ~ 6050 1600
Wire Wire Line
	6300 1950 6300 1750
Connection ~ 6300 1750
Wire Wire Line
	6550 1950 6550 1900
Connection ~ 6550 1900
$Comp
L power:GND #PWR024
U 1 1 573B455C
P 6050 2350
F 0 "#PWR024" H 6050 2100 50  0001 C CNN
F 1 "GND" H 6050 2200 50  0000 C CNN
F 2 "" H 6050 2350 50  0000 C CNN
F 3 "" H 6050 2350 50  0000 C CNN
	1    6050 2350
	1    0    0    -1  
$EndComp
Wire Wire Line
	6050 2350 6050 2300
Wire Wire Line
	6050 2300 6300 2300
Wire Wire Line
	6300 2300 6300 2250
Connection ~ 6050 2300
Wire Wire Line
	6550 2300 6550 2250
Connection ~ 6300 2300
$Comp
L bldc_driver-rescue:R R17
U 1 1 573B48F4
P 6850 2100
F 0 "R17" V 6930 2100 50  0000 C CNN
F 1 "4k7" V 6850 2100 50  0000 C CNN
F 2 "Resistors_SMD:R_1206_HandSoldering" V 6780 2100 50  0001 C CNN
F 3 "" H 6850 2100 50  0000 C CNN
	1    6850 2100
	-1   0    0    1   
$EndComp
$Comp
L bldc_driver-rescue:R R18
U 1 1 573B4A2E
P 7000 2100
F 0 "R18" V 7080 2100 50  0000 C CNN
F 1 "4k7" V 7000 2100 50  0000 C CNN
F 2 "Resistors_SMD:R_1206_HandSoldering" V 6930 2100 50  0001 C CNN
F 3 "" H 7000 2100 50  0000 C CNN
	1    7000 2100
	-1   0    0    1   
$EndComp
$Comp
L bldc_driver-rescue:R R19
U 1 1 573B4ADC
P 7150 2100
F 0 "R19" V 7230 2100 50  0000 C CNN
F 1 "4k7" V 7150 2100 50  0000 C CNN
F 2 "Resistors_SMD:R_1206_HandSoldering" V 7080 2100 50  0001 C CNN
F 3 "" H 7150 2100 50  0000 C CNN
	1    7150 2100
	-1   0    0    1   
$EndComp
Wire Wire Line
	7150 2300 7150 2250
Connection ~ 6550 2300
Wire Wire Line
	6850 2250 6850 2300
Connection ~ 6850 2300
Wire Wire Line
	7000 2250 7000 2300
Connection ~ 7000 2300
Wire Wire Line
	6850 1300 6850 1600
Connection ~ 6850 1600
Wire Wire Line
	7000 1400 7000 1750
Connection ~ 7000 1750
Wire Wire Line
	7150 1500 7150 1900
Connection ~ 7150 1900
Wire Wire Line
	7650 1600 7750 1600
Wire Wire Line
	7750 1600 7750 1750
Wire Wire Line
	7650 1750 7750 1750
Wire Wire Line
	7750 1900 7650 1900
Connection ~ 7750 1750
Text GLabel 5700 1600 0    39   Input ~ 0
Ph_A
Text GLabel 5700 1750 0    39   Input ~ 0
Ph_B
Text GLabel 5700 1900 0    39   Input ~ 0
Ph_C
Text GLabel 7800 1750 2    39   Input ~ 0
SUM_BEMF
Text GLabel 7200 1500 2    39   Input ~ 0
C_BEMF
Text GLabel 7200 1400 2    39   Input ~ 0
B_BMF
Text GLabel 7200 1300 2    39   Input ~ 0
A_BMF
Wire Wire Line
	7150 1500 7200 1500
Wire Wire Line
	7000 1400 7200 1400
Wire Wire Line
	6850 1300 7200 1300
$Comp
L bldc_driver-rescue:BAS21 D2
U 1 1 573BD41A
P 1800 2000
F 0 "D2" H 1800 2100 50  0000 C CNN
F 1 "BAS21" H 1800 1900 50  0000 C CNN
F 2 "TO_SOT_Packages_SMD:SOT-23_Handsoldering" H 1800 2000 50  0001 C CNN
F 3 "" H 1800 2000 50  0000 C CNN
	1    1800 2000
	-1   0    0    1   
$EndComp
$Comp
L bldc_driver-rescue:BAS21 D3
U 1 1 573BDEE5
P 1800 3600
F 0 "D3" H 1800 3700 50  0000 C CNN
F 1 "BAS21" H 1800 3500 50  0000 C CNN
F 2 "TO_SOT_Packages_SMD:SOT-23_Handsoldering" H 1800 3600 50  0001 C CNN
F 3 "" H 1800 3600 50  0000 C CNN
	1    1800 3600
	-1   0    0    1   
$EndComp
$Comp
L bldc_driver-rescue:BAS21 D4
U 1 1 573BDFB3
P 1800 5200
F 0 "D4" H 1800 5300 50  0000 C CNN
F 1 "BAS21" H 1800 5100 50  0000 C CNN
F 2 "TO_SOT_Packages_SMD:SOT-23_Handsoldering" H 1800 5200 50  0001 C CNN
F 3 "" H 1800 5200 50  0000 C CNN
	1    1800 5200
	-1   0    0    1   
$EndComp
Wire Wire Line
	3600 3050 3600 3100
Wire Wire Line
	3600 1950 3600 2000
Wire Wire Line
	3600 2500 3600 2600
Wire Wire Line
	2300 850  2300 900 
Wire Wire Line
	1450 3050 1450 3100
Wire Wire Line
	1350 3050 1450 3050
Wire Wire Line
	1200 2400 1500 2400
Wire Wire Line
	1350 2500 1500 2500
Wire Wire Line
	1450 2100 1450 2000
Wire Wire Line
	1450 2000 1450 1950
Wire Wire Line
	2400 2000 2500 2000
Wire Wire Line
	2500 2500 2350 2500
Wire Wire Line
	3600 4650 3600 4700
Wire Wire Line
	3600 3550 3600 3600
Wire Wire Line
	3600 4100 3600 4200
Wire Wire Line
	1450 4650 1450 4700
Wire Wire Line
	1350 4650 1450 4650
Wire Wire Line
	1200 4000 1500 4000
Wire Wire Line
	1350 4100 1500 4100
Wire Wire Line
	1450 3700 1450 3600
Wire Wire Line
	1450 3600 1450 3550
Wire Wire Line
	2400 3600 2500 3600
Wire Wire Line
	2500 4100 2350 4100
Wire Wire Line
	3600 6250 3600 6300
Wire Wire Line
	3600 5150 3600 5200
Wire Wire Line
	3600 5700 3600 5800
Wire Wire Line
	1450 6250 1450 6300
Wire Wire Line
	1350 6250 1450 6250
Wire Wire Line
	1200 5600 1500 5600
Wire Wire Line
	1350 5700 1500 5700
Wire Wire Line
	1450 5300 1450 5200
Wire Wire Line
	1450 5200 1450 5150
Wire Wire Line
	2400 5200 2500 5200
Wire Wire Line
	2500 5700 2350 5700
Wire Wire Line
	6050 1600 6850 1600
Wire Wire Line
	6300 1750 7000 1750
Wire Wire Line
	6550 1900 7150 1900
Wire Wire Line
	6050 2300 6050 2250
Wire Wire Line
	6300 2300 6550 2300
Wire Wire Line
	6550 2300 6850 2300
Wire Wire Line
	6850 2300 7000 2300
Wire Wire Line
	7000 2300 7150 2300
Wire Wire Line
	6850 1600 6850 1950
Wire Wire Line
	6850 1600 7350 1600
Wire Wire Line
	7000 1750 7000 1950
Wire Wire Line
	7000 1750 7350 1750
Wire Wire Line
	7150 1900 7150 1950
Wire Wire Line
	7150 1900 7350 1900
Wire Wire Line
	7750 1750 7750 1900
Wire Wire Line
	7750 1750 7800 1750
$EndSCHEMATC
